manipulation_donnees_initiation
…
Sélectionner des colonnes

select(penguins, species, island, bill_length_mm, bill_depth_mm)

# A tibble: 344 × 4
   species island    bill_length_mm bill_depth_mm
   <chr>   <chr>              <dbl>         <dbl>
 1 Adelie  Torgersen           39.1          18.7
 2 Adelie  Torgersen           39.5          17.4
 3 Adelie  Torgersen           40.3          18  
 4 Adelie  Torgersen           NA            NA  
 5 Adelie  Torgersen           36.7          19.3
 6 Adelie  Torgersen           39.3          20.6
 7 Adelie  Torgersen           38.9          17.8
 8 Adelie  Torgersen           39.2          19.6
 9 Adelie  Torgersen           34.1          18.1
10 Adelie  Torgersen           42            20.2
# ℹ 334 more rows

Sélectionner des colonnes

select(penguins, species, island, bill_length_mm, bill_depth_mm)

En R basique :

penguins[, c("species", "island", "bill_length_mm", "bill_depth_mm")]

# A tibble: 344 × 4
   species island    bill_length_mm bill_depth_mm
   <chr>   <chr>              <dbl>         <dbl>
 1 Adelie  Torgersen           39.1          18.7
 2 Adelie  Torgersen           39.5          17.4
 3 Adelie  Torgersen           40.3          18  
 4 Adelie  Torgersen           NA            NA  
 5 Adelie  Torgersen           36.7          19.3
 6 Adelie  Torgersen           39.3          20.6
 7 Adelie  Torgersen           38.9          17.8
 8 Adelie  Torgersen           39.2          19.6
 9 Adelie  Torgersen           34.1          18.1
10 Adelie  Torgersen           42            20.2
# ℹ 334 more rows

Sélectionner des colonnes

Pour supprimer des colonnes, retirez-les à l’aide du -

select(penguins, -flipper_length_mm, -body_mass_g, -sex, -year)

# A tibble: 344 × 4
   species island    bill_length_mm bill_depth_mm
   <chr>   <chr>              <dbl>         <dbl>
 1 Adelie  Torgersen           39.1          18.7
 2 Adelie  Torgersen           39.5          17.4
 3 Adelie  Torgersen           40.3          18  
 4 Adelie  Torgersen           NA            NA  
 5 Adelie  Torgersen           36.7          19.3
 6 Adelie  Torgersen           39.3          20.6
 7 Adelie  Torgersen           38.9          17.8
 8 Adelie  Torgersen           39.2          19.6
 9 Adelie  Torgersen           34.1          18.1
10 Adelie  Torgersen           42            20.2
# ℹ 334 more rows

Sélectionner des colonnes

Conservez ou supprimez des colonnes consécutives à l’aide du : :

select(penguins, species:bill_depth_mm)

# A tibble: 344 × 4
   species island    bill_length_mm bill_depth_mm
   <chr>   <chr>              <dbl>         <dbl>
 1 Adelie  Torgersen           39.1          18.7
 2 Adelie  Torgersen           39.5          17.4
 3 Adelie  Torgersen           40.3          18  
 4 Adelie  Torgersen           NA            NA  
 5 Adelie  Torgersen           36.7          19.3
 6 Adelie  Torgersen           39.3          20.6
 7 Adelie  Torgersen           38.9          17.8
 8 Adelie  Torgersen           39.2          19.6
 9 Adelie  Torgersen           34.1          18.1
10 Adelie  Torgersen           42            20.2
# ℹ 334 more rows

Sélectionner des colonnes

Conservez ou supprimez des colonnes consécutives à l’aide du : :

select(penguins, -(flipper_length_mm:year))

# A tibble: 344 × 4
   species island    bill_length_mm bill_depth_mm
   <chr>   <chr>              <dbl>         <dbl>
 1 Adelie  Torgersen           39.1          18.7
 2 Adelie  Torgersen           39.5          17.4
 3 Adelie  Torgersen           40.3          18  
 4 Adelie  Torgersen           NA            NA  
 5 Adelie  Torgersen           36.7          19.3
 6 Adelie  Torgersen           39.3          20.6
 7 Adelie  Torgersen           38.9          17.8
 8 Adelie  Torgersen           39.2          19.6
 9 Adelie  Torgersen           34.1          18.1
10 Adelie  Torgersen           42            20.2
# ℹ 334 more rows

Sélectionner des colonnes

La fonction select() peut également servir à modifier l’ordre des colonnes :

select(penguins, island, species, bill_length_mm:year)

# A tibble: 344 × 8
   island    species bill_length_mm bill_depth_mm flipper_length_mm body_mass_g
   <chr>     <chr>            <dbl>         <dbl>             <dbl>       <dbl>
 1 Torgersen Adelie            39.1          18.7               181        3750
 2 Torgersen Adelie            39.5          17.4               186        3800
 3 Torgersen Adelie            40.3          18                 195        3250
 4 Torgersen Adelie            NA            NA                  NA          NA
 5 Torgersen Adelie            36.7          19.3               193        3450
 6 Torgersen Adelie            39.3          20.6               190        3650
 7 Torgersen Adelie            38.9          17.8               181        3625
 8 Torgersen Adelie            39.2          19.6               195        4675
 9 Torgersen Adelie            34.1          18.1               193        3475
10 Torgersen Adelie            42            20.2               190        4250
# ℹ 334 more rows
# ℹ 2 more variables: sex <chr>, year <dbl>

Sélectionner des colonnes

La fonction select() peut également servir à modifier l’ordre des colonnes :

select(penguins, island, species, everything())

# A tibble: 344 × 8
   island    species bill_length_mm bill_depth_mm flipper_length_mm body_mass_g
   <chr>     <chr>            <dbl>         <dbl>             <dbl>       <dbl>
 1 Torgersen Adelie            39.1          18.7               181        3750
 2 Torgersen Adelie            39.5          17.4               186        3800
 3 Torgersen Adelie            40.3          18                 195        3250
 4 Torgersen Adelie            NA            NA                  NA          NA
 5 Torgersen Adelie            36.7          19.3               193        3450
 6 Torgersen Adelie            39.3          20.6               190        3650
 7 Torgersen Adelie            38.9          17.8               181        3625
 8 Torgersen Adelie            39.2          19.6               195        4675
 9 Torgersen Adelie            34.1          18.1               193        3475
10 Torgersen Adelie            42            20.2               190        4250
# ℹ 334 more rows
# ℹ 2 more variables: sex <chr>, year <dbl>
…
affichez l’objet penguins_sel

Mise en pratique - select()

Dans le jeu de données penguins :

sélectionnez les colonnes species, island, bill_length_mm et flipper_length_mm

assignez cette sélection dans un objet penguins_sel

affichez l’objet penguins_sel

(penguins_sel <- select(penguins, species:bill_length_mm, flipper_length_mm))

# A tibble: 344 × 4
   species island    bill_length_mm flipper_length_mm
   <chr>   <chr>              <dbl>             <dbl>
 1 Adelie  Torgersen           39.1               181
 2 Adelie  Torgersen           39.5               186
 3 Adelie  Torgersen           40.3               195
 4 Adelie  Torgersen           NA                  NA
 5 Adelie  Torgersen           36.7               193
 6 Adelie  Torgersen           39.3               190
 7 Adelie  Torgersen           38.9               181
 8 Adelie  Torgersen           39.2               195
 9 Adelie  Torgersen           34.1               193
10 Adelie  Torgersen           42                 190
# ℹ 334 more rows
…
Trier les données

La fonction arrange() permet de trier les données par variables :

penguins |> 
  arrange(body_mass_g)

# A tibble: 344 × 8
   species   island   bill_length_mm bill_depth_mm flipper_length_mm body_mass_g
   <chr>     <chr>             <dbl>         <dbl>             <dbl>       <dbl>
 1 Chinstrap Dream              46.9          16.6               192        2700
 2 Adelie    Biscoe             36.5          16.6               181        2850
 3 Adelie    Biscoe             36.4          17.1               184        2850
 4 Adelie    Biscoe             34.5          18.1               187        2900
 5 Adelie    Dream              33.1          16.1               178        2900
 6 Adelie    Torgers…           38.6          17                 188        2900
 7 Chinstrap Dream              43.2          16.6               187        2900
 8 Adelie    Biscoe             37.9          18.6               193        2925
 9 Adelie    Dream              37.5          18.9               179        2975
10 Adelie    Dream              37            16.9               185        3000
# ℹ 334 more rows
# ℹ 2 more variables: sex <chr>, year <dbl>

En R basique :

penguins[order(penguins$body_mass_g), ]

Trier les données

Pour trier par ordre décroissant, ajoutez un - ou utilisez la fonction desc() :

penguins |> 
  arrange(-body_mass_g)

# A tibble: 344 × 8
   species island bill_length_mm bill_depth_mm flipper_length_mm body_mass_g
   <chr>   <chr>           <dbl>         <dbl>             <dbl>       <dbl>
 1 Gentoo  Biscoe           49.2          15.2               221        6300
 2 Gentoo  Biscoe           59.6          17                 230        6050
 3 Gentoo  Biscoe           51.1          16.3               220        6000
 4 Gentoo  Biscoe           48.8          16.2               222        6000
 5 Gentoo  Biscoe           45.2          16.4               223        5950
 6 Gentoo  Biscoe           49.8          15.9               229        5950
 7 Gentoo  Biscoe           48.4          14.6               213        5850
 8 Gentoo  Biscoe           49.3          15.7               217        5850
 9 Gentoo  Biscoe           55.1          16                 230        5850
10 Gentoo  Biscoe           49.5          16.2               229        5800
# ℹ 334 more rows
# ℹ 2 more variables: sex <chr>, year <dbl>

penguins |> 
  arrange(desc(body_mass_g))

Trier les données

Vous pouvez trier sur plusieurs colonnes :

penguins |> 
  arrange(-body_mass_g, bill_depth_mm)

# A tibble: 344 × 8
   species island bill_length_mm bill_depth_mm flipper_length_mm body_mass_g
   <chr>   <chr>           <dbl>         <dbl>             <dbl>       <dbl>
 1 Gentoo  Biscoe           49.2          15.2               221        6300
 2 Gentoo  Biscoe           59.6          17                 230        6050
 3 Gentoo  Biscoe           48.8          16.2               222        6000
 4 Gentoo  Biscoe           51.1          16.3               220        6000
 5 Gentoo  Biscoe           49.8          15.9               229        5950
 6 Gentoo  Biscoe           45.2          16.4               223        5950
 7 Gentoo  Biscoe           48.4          14.6               213        5850
 8 Gentoo  Biscoe           49.3          15.7               217        5850
 9 Gentoo  Biscoe           55.1          16                 230        5850
10 Gentoo  Biscoe           48.6          16                 230        5800
# ℹ 334 more rows
# ℹ 2 more variables: sex <chr>, year <dbl>
…
